Recursos para manipulação de tabelas de dados
…
2.3 TV

da_tv <- arrange(da_tv, age)
da_tv <- arrange(da_tv, marital, -age)
da_tv

# # A tibble: 45,211 x 17
#      age job     marital  education default balance housing loan  contact 
#    <int> <chr>   <chr>    <chr>     <chr>     <int> <chr>   <chr> <chr>   
#  1    95 retired divorced primary   no         2282 no      no    telepho…
#  2    94 retired divorced secondary no         1234 no      no    cellular
#  3    90 retired divorced secondary no            1 no      no    cellular
#  4    90 retired divorced primary   no          712 no      no    telepho…
#  5    89 retired divorced primary   no         1323 no      no    telepho…
#  6    87 retired divorced primary   no         6746 no      no    telepho…
#  7    86 retired divorced primary   no            0 no      no    telepho…
#  8    86 retired divorced unknown   no          157 no      no    telepho…
#  9    85 retired divorced primary   no         7613 no      no    cellular
# 10    84 retired divorced primary   no         2619 no      no    telepho…
# # ... with 45,201 more rows, and 8 more variables: day <int>, month <chr>,
# #   duration <int>, campaign <int>, pdays <int>, previous <int>,
# #   poutcome <chr>, y <chr>
…
